<?xml version="1.0" encoding="utf-8"?>
<svg width="56" height="48" version="1.1" xmlns="http://www.w3.org/2000/svg">
  <defs>
    <filter id="blur" x="-.24684" y="-.24132" width="1.4937" height="1.5878">
      <feGaussianBlur in="SourceAlpha" stdDeviation="3"/>
      <feOffset dx="0" dy="4" result="offsetblur"/>
      <feComponentTransfer>
        <feFuncA slope="0.05" type="linear"/>
      </feComponentTransfer>
      <feMerge>
        <feMergeNode/>
        <feMergeNode in="SourceGraphic"/>
      </feMerge>
    </filter>
  </defs>
  <g transform="translate(16,-2)" filter="url(#blur)">
    <g class="am-weather-cloud-3">
      <path transform="translate(-20,-11)" d="m47.7 35.4c0-4.6-3.7-8.2-8.2-8.2-1 0-1.9 0.2-2.8 0.5-0.3-3.4-3.1-6.2-6.6-6.2-3.7 0-6.7 3-6.7 6.7 0 0.8 0.2 1.6 0.4 2.3-0.3-0.1-0.7-0.1-1-0.1-3.7 0-6.7 3-6.7 6.7 0 3.6 2.9 6.6 6.5 6.7h17.2c4.4-0.5 7.9-4 7.9-8.4z" fill="#fff" stroke="#57a0ee" stroke-linejoin="round" stroke-width="1.2"/>
    </g>
    <g class="am-weather-rainy-1" transform="matrix(0.984808, 0.173648, -0.173648, 0.984808, 8.000643, 35.000725)">
      <line class="am-weather-rain-1" transform="translate(-6,1)" y2="8" fill="none" stroke="#91c0f8" stroke-dasharray="4, 7" stroke-linecap="round" stroke-width="2"/>
    </g>
    <g class="am-weather-rainy-1" transform="matrix(0.984808, 0.173648, -0.173648, 0.984808, 11.000643, 35.000725)">
      <line class="am-weather-rain-1" transform="translate(-6,1)" y2="8" fill="none" stroke="#91c0f8" stroke-dasharray="4, 7" stroke-linecap="round" stroke-width="2"/>
    </g>
    <g class="am-weather-rainy-1" transform="matrix(0.984808, 0.173648, -0.173648, 0.984808, 14.000643, 35.000725)">
      <line class="am-weather-rain-1" transform="translate(-6,1)" y2="8" fill="none" stroke="#91c0f8" stroke-dasharray="4, 7" stroke-linecap="round" stroke-width="2"/>
    </g>
  </g>
  <g class="am-weather-lightning" transform="matrix(1.030653, 0, 0, 1.030653, 15.621104, 26.731209)" style="">
    <polygon class="am-weather-stroke" points="11.1 6.9 14.3 -2.9 20.5 -2.9 16.4 4.3 20.3 4.3 11.5 14.6 14.9 6.9" fill="#ffa500" stroke="#fff"/>
  </g>
</svg>