{
    "𝐚": "a",
    "𝑎": "a",
    "𝒂": "a",
    "𝖺": "a",
    "𝗮": "a",
    "𝘢": "a",
    "𝙖": "a",
    "𝒶": "a",
    "𝓪": "a",
    "𝔞": "a",
    "𝖆": "a",
    "𝚊": "a",
    "𝕒": "a",
    "𝐛": "b",
    "𝑏": "b",
    "𝒃": "b",
    "𝖻": "b",
    "𝗯": "b",
    "𝘣": "b",
    "𝙗": "b",
    "𝒷": "b",
    "𝓫": "b",
    "𝔟": "b",
    "𝖇": "b",
    "𝚋": "b",
    "𝕓": "b",
    "𝐜": "c",
    "𝑐": "c",
    "𝒄": "c",
    "𝖼": "c",
    "𝗰": "c",
    "𝘤": "c",
    "𝙘": "c",
    "𝒸": "c",
    "𝓬": "c",
    "𝔠": "c",
    "𝖈": "c",
    "𝚌": "c",
    "𝕔": "c",
    "𝐝": "d",
    "𝑑": "d",
    "𝒅": "d",
    "𝖽": "d",
    "𝗱": "d",
    "𝘥": "d",
    "𝙙": "d",
    "𝒹": "d",
    "𝓭": "d",
    "𝔡": "d",
    "𝖉": "d",
    "𝚍": "d",
    "𝕕": "d",
    "𝐞": "e",
    "𝑒": "e",
    "𝒆": "e",
    "𝖾": "e",
    "𝗲": "e",
    "𝘦": "e",
    "𝙚": "e",
    "ℯ": "e",
    "𝓮": "e",
    "𝔢": "e",
    "𝖊": "e",
    "𝚎": "e",
    "𝕖": "e",
    "𝐟": "f",
    "𝑓": "f",
    "𝒇": "f",
    "𝖿": "f",
    "𝗳": "f",
    "𝘧": "f",
    "𝙛": "f",
    "𝒻": "f",
    "𝓯": "f",
    "𝔣": "f",
    "𝖋": "f",
    "𝚏": "f",
    "𝕗": "f",
    "𝐠": "g",
    "𝑔": "g",
    "𝒈": "g",
    "𝗀": "g",
    "𝗴": "g",
    "𝘨": "g",
    "𝙜": "g",
    "ℊ": "g",
    "𝓰": "g",
    "𝔤": "g",
    "𝖌": "g",
    "𝚐": "g",
    "𝕘": "g",
    "𝐡": "h",
    "ℎ": "h",
    "𝒉": "h",
    "𝗁": "h",
    "𝗵": "h",
    "𝘩": "h",
    "𝙝": "h",
    "𝒽": "h",
    "𝓱": "h",
    "𝔥": "h",
    "𝖍": "h",
    "𝚑": "h",
    "𝕙": "h",
    "𝐢": "i",
    "𝑖": "i",
    "𝒊": "i",
    "𝗂": "i",
    "𝗶": "i",
    "𝘪": "i",
    "𝙞": "i",
    "𝒾": "i",
    "𝓲": "i",
    "𝔦": "i",
    "𝖎": "i",
    "𝚒": "i",
    "𝕚": "i",
    "𝐣": "j",
    "𝑗": "j",
    "𝒋": "j",
    "𝗃": "j",
    "𝗷": "j",
    "𝘫": "j",
    "𝙟": "j",
    "𝒿": "j",
    "𝓳": "j",
    "𝔧": "j",
    "𝖏": "j",
    "𝚓": "j",
    "𝕛": "j",
    "𝐤": "k",
    "𝑘": "k",
    "𝒌": "k",
    "𝗄": "k",
    "𝗸": "k",
    "𝘬": "k",
    "𝙠": "k",
    "𝓀": "k",
    "𝓴": "k",
    "𝔨": "k",
    "𝖐": "k",
    "𝚔": "k",
    "𝕜": "k",
    "𝐥": "l",
    "𝑙": "l",
    "𝒍": "l",
    "𝗅": "l",
    "𝗹": "l",
    "𝘭": "l",
    "𝙡": "l",
    "𝓁": "l",
    "𝓵": "l",
    "𝔩": "l",
    "𝖑": "l",
    "𝚕": "l",
    "𝕝": "l",
    "𝐦": "m",
    "𝑚": "m",
    "𝒎": "m",
    "𝗆": "m",
    "𝗺": "m",
    "𝘮": "m",
    "𝙢": "m",
    "𝓂": "m",
    "𝓶": "m",
    "𝔪": "m",
    "𝖒": "m",
    "𝚖": "m",
    "𝕞": "m",
    "𝐧": "n",
    "𝑛": "n",
    "𝒏": "n",
    "𝗇": "n",
    "𝗻": "n",
    "𝘯": "n",
    "𝙣": "n",
    "𝓃": "n",
    "𝓷": "n",
    "𝔫": "n",
    "𝖓": "n",
    "𝚗": "n",
    "𝕟": "n",
    "𝐨": "o",
    "𝑜": "o",
    "𝒐": "o",
    "𝗈": "o",
    "𝗼": "o",
    "𝘰": "o",
    "𝙤": "o",
    "ℴ": "o",
    "𝓸": "o",
    "𝔬": "o",
    "𝖔": "o",
    "𝚘": "o",
    "𝕠": "o",
    "𝐩": "p",
    "𝑝": "p",
    "𝒑": "p",
    "𝗉": "p",
    "𝗽": "p",
    "𝘱": "p",
    "𝙥": "p",
    "𝓅": "p",
    "𝓹": "p",
    "𝔭": "p",
    "𝖕": "p",
    "𝚙": "p",
    "𝕡": "p",
    "𝐪": "q",
    "𝑞": "q",
    "𝒒": "q",
    "𝗊": "q",
    "𝗾": "q",
    "𝘲": "q",
    "𝙦": "q",
    "𝓆": "q",
    "𝓺": "q",
    "𝔮": "q",
    "𝖖": "q",
    "𝚚": "q",
    "𝕢": "q",
    "𝐫": "r",
    "𝑟": "r",
    "𝒓": "r",
    "𝗋": "r",
    "𝗿": "r",
    "𝘳": "r",
    "𝙧": "r",
    "𝓇": "r",
    "𝓻": "r",
    "𝔯": "r",
    "𝖗": "r",
    "𝚛": "r",
    "𝕣": "r",
    "𝐬": "s",
    "𝑠": "s",
    "𝒔": "s",
    "𝗌": "s",
    "𝘀": "s",
    "𝘴": "s",
    "𝙨": "s",
    "𝓈": "s",
    "𝓼": "s",
    "𝔰": "s",
    "𝖘": "s",
    "𝚜": "s",
    "𝕤": "s",
    "𝐭": "t",
    "𝑡": "t",
    "𝒕": "t",
    "𝗍": "t",
    "𝘁": "t",
    "𝘵": "t",
    "𝙩": "t",
    "𝓉": "t",
    "𝓽": "t",
    "𝔱": "t",
    "𝖙": "t",
    "𝚝": "t",
    "𝕥": "t",
    "𝐮": "u",
    "𝑢": "u",
    "𝒖": "u",
    "𝗎": "u",
    "𝘂": "u",
    "𝘶": "u",
    "𝙪": "u",
    "𝓊": "u",
    "𝓾": "u",
    "𝔲": "u",
    "𝖚": "u",
    "𝚞": "u",
    "𝕦": "u",
    "𝐯": "v",
    "𝑣": "v",
    "𝒗": "v",
    "𝗏": "v",
    "𝘃": "v",
    "𝘷": "v",
    "𝙫": "v",
    "𝓋": "v",
    "𝓿": "v",
    "𝔳": "v",
    "𝖛": "v",
    "𝚟": "v",
    "𝕧": "v",
    "𝐰": "w",
    "𝑤": "w",
    "𝒘": "w",
    "𝗐": "w",
    "𝘄": "w",
    "𝘸": "w",
    "𝙬": "w",
    "𝓌": "w",
    "𝔀": "w",
    "𝔴": "w",
    "𝖜": "w",
    "𝚠": "w",
    "𝕨": "w",
    "𝐱": "x",
    "𝑥": "x",
    "𝒙": "x",
    "𝗑": "x",
    "𝘅": "x",
    "𝘹": "x",
    "𝙭": "x",
    "𝓍": "x",
    "𝔁": "x",
    "𝔵": "x",
    "𝖝": "x",
    "𝚡": "x",
    "𝕩": "x",
    "𝐲": "y",
    "𝑦": "y",
    "𝒚": "y",
    "𝗒": "y",
    "𝘆": "y",
    "𝘺": "y",
    "𝙮": "y",
    "𝓎": "y",
    "𝔂": "y",
    "𝔶": "y",
    "𝖞": "y",
    "𝚢": "y",
    "𝕪": "y",
    "𝐳": "z",
    "𝑧": "z",
    "𝒛": "z",
    "𝗓": "z",
    "𝘇": "z",
    "𝘻": "z",
    "𝙯": "z",
    "𝓏": "z",
    "𝔃": "z",
    "𝔷": "z",
    "𝖟": "z",
    "𝚣": "z",
    "𝕫": "z"
}